<?xml version="1.0" encoding="UTF-8" standalone="no"?>
<!-- Created with Inkscape (http://www.inkscape.org/) -->

<svg
   xmlns:dc="http://purl.org/dc/elements/1.1/"
   xmlns:cc="http://creativecommons.org/ns#"
   xmlns:rdf="http://www.w3.org/1999/02/22-rdf-syntax-ns#"
   xmlns:svg="http://www.w3.org/2000/svg"
   xmlns="http://www.w3.org/2000/svg"
   xmlns:xlink="http://www.w3.org/1999/xlink"
   xmlns:sodipodi="http://sodipodi.sourceforge.net/DTD/sodipodi-0.dtd"
   xmlns:inkscape="http://www.inkscape.org/namespaces/inkscape"
   width="100mm"
   height="100mm"
   viewBox="0 0 100 100"
   version="1.1"
   id="svg4565"
   inkscape:version="0.92.1 r15371"
   sodipodi:docname="?.svg"
   inkscape:export-filename="/home/luna/Projects/Active/RubberDuckDebugger/android/assets/?.png"
   inkscape:export-xdpi="50.799999"
   inkscape:export-ydpi="50.799999">
  <defs
     id="defs4559">
    <linearGradient
       inkscape:collect="always"
       id="linearGradient5120">
      <stop
         style="stop-color:#ffffff;stop-opacity:0.87671232"
         offset="0"
         id="stop5116" />
      <stop
         style="stop-color:#ffffff;stop-opacity:0.71689498"
         offset="1"
         id="stop5118" />
    </linearGradient>
    <radialGradient
       inkscape:collect="always"
       xlink:href="#linearGradient5120"
       id="radialGradient5122"
       cx="49.999996"
       cy="247"
       fx="49.999996"
       fy="247"
       r="50"
       gradientUnits="userSpaceOnUse"
       gradientTransform="matrix(1.0000001,-0.00698703,0.00698686,0.99997559,-1.7257598,0.35538055)" />
  </defs>
  <sodipodi:namedview
     id="base"
     pagecolor="#ffffff"
     bordercolor="#666666"
     borderopacity="1.0"
     inkscape:pageopacity="0.0"
     inkscape:pageshadow="2"
     inkscape:zoom="1.5147144"
     inkscape:cx="185.80087"
     inkscape:cy="173.15124"
     inkscape:document-units="mm"
     inkscape:current-layer="layer1"
     showgrid="false"
     inkscape:snap-page="true"
     inkscape:window-width="1600"
     inkscape:window-height="847"
     inkscape:window-x="0"
     inkscape:window-y="26"
     inkscape:window-maximized="0">
    <inkscape:grid
       type="xygrid"
       id="grid5110" />
  </sodipodi:namedview>
  <metadata
     id="metadata4562">
    <rdf:RDF>
      <cc:Work
         rdf:about="">
        <dc:format>image/svg+xml</dc:format>
        <dc:type
           rdf:resource="http://purl.org/dc/dcmitype/StillImage" />
        <dc:title></dc:title>
      </cc:Work>
    </rdf:RDF>
  </metadata>
  <g
     inkscape:label="Layer 1"
     inkscape:groupmode="layer"
     id="layer1"
     transform="translate(0,-197)">
    <circle
       style="opacity:1;fill:url(#radialGradient5122);fill-opacity:1;fill-rule:nonzero;stroke:none;stroke-width:2.3812499;stroke-linecap:round;stroke-linejoin:round;stroke-miterlimit:4;stroke-dasharray:none;stroke-opacity:1"
       id="path5112"
       cx="50"
       cy="247"
       r="50" />
    <text
       xml:space="preserve"
       style="font-style:normal;font-variant:normal;font-weight:normal;font-stretch:normal;font-size:6.82765675px;line-height:11.37942791px;font-family:'Comic Neue';-inkscape-font-specification:'Comic Neue';letter-spacing:0px;word-spacing:0px;fill:#000000;fill-opacity:0.43378996;stroke:none;stroke-width:0.4551771px;stroke-linecap:butt;stroke-linejoin:miter;stroke-opacity:1"
       x="28.369984"
       y="277.41312"
       id="text5128"><tspan
         sodipodi:role="line"
         id="tspan5126"
         x="28.369984"
         y="277.41312"
         style="font-style:normal;font-variant:normal;font-weight:normal;font-stretch:normal;font-size:87.39400482px;font-family:Cantarell;-inkscape-font-specification:Cantarell;fill:#000000;fill-opacity:0.43378996;stroke-width:0.4551771px">?</tspan></text>
  </g>
</svg>
