<?xml version="1.0" encoding="UTF-8" standalone="no"?>
<!-- Created with Inkscape (http://www.inkscape.org/) -->

<svg
   xmlns:dc="http://purl.org/dc/elements/1.1/"
   xmlns:cc="http://creativecommons.org/ns#"
   xmlns:rdf="http://www.w3.org/1999/02/22-rdf-syntax-ns#"
   xmlns:svg="http://www.w3.org/2000/svg"
   xmlns="http://www.w3.org/2000/svg"
   xmlns:sodipodi="http://sodipodi.sourceforge.net/DTD/sodipodi-0.dtd"
   xmlns:inkscape="http://www.inkscape.org/namespaces/inkscape"
   version="1.1"
   id="svg4555"
   width="320"
   height="320"
   viewBox="0 0 320 320"
   sodipodi:docname="duck-icon.svg"
   inkscape:version="0.92.1 r15371"
   inkscape:export-filename="/home/luna/Projects/Active/RubberDuckDebugger/art/icon512.png"
   inkscape:export-xdpi="153.60001"
   inkscape:export-ydpi="153.60001">
  <metadata
     id="metadata4561">
    <rdf:RDF>
      <cc:Work
         rdf:about="">
        <dc:format>image/svg+xml</dc:format>
        <dc:type
           rdf:resource="http://purl.org/dc/dcmitype/StillImage" />
        <dc:title />
      </cc:Work>
    </rdf:RDF>
  </metadata>
  <defs
     id="defs4559" />
  <sodipodi:namedview
     pagecolor="#ffffff"
     bordercolor="#666666"
     borderopacity="1"
     objecttolerance="10"
     gridtolerance="10"
     guidetolerance="10"
     inkscape:pageopacity="0"
     inkscape:pageshadow="2"
     inkscape:window-width="1600"
     inkscape:window-height="847"
     id="namedview4557"
     showgrid="false"
     inkscape:snap-global="false"
     inkscape:zoom="1.3317536"
     inkscape:cx="-52.601386"
     inkscape:cy="141.74607"
     inkscape:window-x="0"
     inkscape:window-y="26"
     inkscape:window-maximized="0"
     inkscape:current-layer="svg4555" />
  <ellipse
     style="opacity:1;fill:#000000;fill-opacity:0.3105023;fill-rule:nonzero;stroke:none;stroke-width:7.18110228;stroke-linecap:round;stroke-linejoin:round;stroke-miterlimit:4;stroke-dasharray:none;stroke-opacity:1"
     id="path4508"
     cx="171.32387"
     cy="291.46301"
     rx="133.65836"
     ry="25.905693" />
  <path
     style="fill:#ffc51f;fill-opacity:1;fill-rule:evenodd;stroke:#000000;stroke-width:9;stroke-linecap:butt;stroke-linejoin:miter;stroke-miterlimit:4;stroke-dasharray:none;stroke-opacity:1"
     d="m 73.846088,110.49527 c 17.170757,13.15977 42.039632,17.0818 65.835932,22.29091 l 110.93613,34.21394 c 29.95521,27.30204 41.75575,54.60408 35.76913,81.90612 -3.01321,27.49619 -24.33951,40.67243 -52.8761,48.21056 -30.89753,7.56551 -64.49584,8.8292 -99.53148,6.73911 C 86.572186,293.78914 66.107042,286.00023 37.558568,263.93964 18.582131,249.68723 17.882621,230.21283 17.859628,210.54515 23.676663,177.17583 37.072592,146.3328 51.036789,115.6792 c 9.510389,-14.12536 15.950423,-8.29341 22.809299,-5.18393 z"
     id="path4571"
     inkscape:connector-curvature="0"
     sodipodi:nodetypes="cccccccccc" />
  <path
     style="fill:#ffc51f;fill-opacity:1;fill-rule:evenodd;stroke:#000000;stroke-width:9;stroke-linecap:butt;stroke-linejoin:miter;stroke-miterlimit:4;stroke-dasharray:none;stroke-opacity:1"
     d="M 146.42113,140.04368 C 136.11739,129.34271 126.01493,118.13854 118.4279,100.6458 107.17469,71.888573 125.84593,33.069422 134.69407,26.23561 151.36608,3.3756919 192.41292,0.14262822 231.19918,12.869376 c 22.49427,12.540441 49.14517,64.894052 31.34202,95.033934 l -19.44441,63.19937"
     id="path4575"
     inkscape:connector-curvature="0"
     sodipodi:nodetypes="cccccc" />
  <ellipse
     style="opacity:1;fill:#000000;fill-opacity:1;fill-rule:nonzero;stroke:none;stroke-width:5.6831398;stroke-linecap:round;stroke-linejoin:round;stroke-miterlimit:4;stroke-dasharray:none;stroke-opacity:1"
     id="path4577"
     cx="204.28783"
     cy="89.265289"
     rx="16.78191"
     ry="20.71159" />
  <ellipse
     style="opacity:1;fill:#000000;fill-opacity:1;fill-rule:nonzero;stroke:none;stroke-width:5.6831398;stroke-linecap:round;stroke-linejoin:round;stroke-miterlimit:4;stroke-dasharray:none;stroke-opacity:1"
     id="path4577-3"
     cx="253.68983"
     cy="77.482361"
     rx="12.107573"
     ry="17.249771" />
  <path
     style="fill:#e64f4b;fill-opacity:1;fill-rule:evenodd;stroke:#000000;stroke-width:9;stroke-linecap:butt;stroke-linejoin:miter;stroke-miterlimit:4;stroke-dasharray:none;stroke-opacity:1"
     d="m 197.22366,134.34135 c 15.28646,-13.94973 25.40507,-24.8493 39.91627,-35.250726 5.28397,-1.373286 9.99961,-1.325738 13.99662,0.518388 8.03098,3.604068 7.56324,12.575748 26.43804,9.331078 5.07238,0.0748 10.47487,-0.37856 12.44144,4.66554 3.18462,11.8552 -14.54413,14.4746 -21.77251,16.07019 4.54408,10.50426 7.98023,18.18133 4.66554,25.91966 -4.78597,10.70155 -13.3244,11.61161 -22.29091,11.40464 -22.14046,-6.5258 -34.08405,-17.96821 -54.43128,-23.84608 -2.01305,-3.57113 -1.4628,-6.45372 1.03679,-8.81269 z"
     id="path4611"
     inkscape:connector-curvature="0"
     sodipodi:nodetypes="cccccccccc" />
  <path
     style="fill:#a22e2b;fill-opacity:1;fill-rule:evenodd;stroke:none;stroke-width:5.6831398;stroke-linecap:butt;stroke-linejoin:miter;stroke-miterlimit:4;stroke-dasharray:none;stroke-opacity:1"
     d="m 262.99036,128.92537 c 10.43087,39.98383 -26.02396,15.34917 -48.03924,10.61528 z"
     id="path4622"
     inkscape:connector-curvature="0"
     sodipodi:nodetypes="ccc" />
  <path
     style="fill:#f09172;fill-opacity:1;fill-rule:evenodd;stroke:none;stroke-width:5.6831398;stroke-linecap:butt;stroke-linejoin:miter;stroke-miterlimit:4;stroke-dasharray:none;stroke-opacity:1"
     d="m 263.15115,112.62681 -33.52017,16.76009 c 8.25153,-6.56065 15.59854,-13.4228 33.52017,-16.76009 z"
     id="path4624"
     inkscape:connector-curvature="0"
     sodipodi:nodetypes="ccc" />
  <path
     style="fill:#ffd96c;fill-opacity:1;fill-rule:evenodd;stroke:none;stroke-width:5.6831398;stroke-linecap:butt;stroke-linejoin:miter;stroke-miterlimit:4;stroke-dasharray:none;stroke-opacity:1"
     d="m 152.82857,22.384722 c 18.86408,-7.111953 35.54527,-8.018187 51.36513,-6.475736 10.27207,3.665145 5.55464,0.708015 8.1942,9.473152 -19.88554,15.178733 -30.81975,10.557357 -53.28042,25.273445 -16.23695,5.12582 -13.05889,12.965847 -23.68552,6.634454 -2.92219,-15.25946 5.05297,-25.99186 17.40661,-34.905315 z"
     id="path4634"
     inkscape:connector-curvature="0"
     sodipodi:nodetypes="cccccc" />
  <path
     style="fill:#e5ad0d;fill-opacity:1;fill-rule:evenodd;stroke:none;stroke-width:5.6831398;stroke-linecap:butt;stroke-linejoin:miter;stroke-miterlimit:4;stroke-dasharray:none;stroke-opacity:1"
     d="m 86.058671,193.44056 c -4.778213,5.91486 -10.677526,10.0675 -6.102417,17.3338 -10.451143,6.64028 -4.40258,13.68481 -5.425948,20.55608 -8.020352,10.65699 0.533646,13.87619 1.342687,22.44932 -0.963565,-9.41868 -2.660334,-14.69488 4.879586,-22.14303 -2.162927,-6.6247 -3.555245,-13.34632 4.597381,-21.26858 -4.913156,-5.44304 -0.754663,-10.50815 0.708711,-16.92759 z"
     id="path4642"
     inkscape:connector-curvature="0"
     sodipodi:nodetypes="ccccccc" />
  <path
     style="fill:#e5ad0d;fill-opacity:1;fill-rule:evenodd;stroke:none;stroke-width:5.6831398;stroke-linecap:butt;stroke-linejoin:miter;stroke-miterlimit:4;stroke-dasharray:none;stroke-opacity:1"
     d="m 102.33137,198.58611 c -5.681799,6.31698 -11.469907,9.18504 -6.029639,16.94535 -12.4275,14.05784 -5.235114,14.66545 -6.452019,21.95361 -9.537037,11.38151 -1.364565,19.00906 -0.40252,28.16504 -1.145782,-10.05902 -1.164287,-19.88342 7.80146,-27.83794 -2.571942,-7.07508 -4.227551,-14.25368 5.466758,-22.71454 -5.842255,-5.81309 -2.12414,-9.65566 -0.38404,-16.51152 z"
     id="path4642-7"
     inkscape:connector-curvature="0"
     sodipodi:nodetypes="ccccccc" />
  <path
     style="fill:#e5ad0d;fill-opacity:1;fill-rule:evenodd;stroke:none;stroke-width:5.6831398;stroke-linecap:butt;stroke-linejoin:miter;stroke-miterlimit:4;stroke-dasharray:none;stroke-opacity:1"
     d="m 124.34388,201.85452 c -5.86249,6.56831 -12.41294,13.04665 -6.79962,21.11572 -17.562763,14.48387 -6.01475,16.11635 -6.65723,22.82705 -9.84037,11.83434 -1.40796,19.76536 -0.41533,29.28563 -1.18222,-10.45923 -1.20132,-20.6745 8.0496,-28.94551 -2.65376,-7.35657 -4.36203,-14.82078 5.64063,-23.61826 -6.02807,-6.04437 -1.61348,-13.53601 0.18195,-20.66463 z"
     id="path4642-5"
     inkscape:connector-curvature="0"
     sodipodi:nodetypes="ccccccc" />
  <path
     style="fill:#e5ad0d;fill-opacity:1;fill-rule:evenodd;stroke:none;stroke-width:5.6831398;stroke-linecap:butt;stroke-linejoin:miter;stroke-miterlimit:4;stroke-dasharray:none;stroke-opacity:1"
     d="m 63.725858,185.76905 c -4.055343,4.75874 -8.58657,9.4523 -4.703594,15.29835 -8.870064,5.34237 -3.736546,11.00998 -4.6051,16.53821 -6.807008,8.57397 -0.973944,14.32 -0.287297,21.21744 -0.817795,-7.57772 -0.831006,-14.97869 5.568256,-20.97104 -1.835723,-5.32983 -3.017407,-10.73765 3.90187,-17.11143 -4.169879,-4.37915 -1.116119,-9.80684 0.125865,-14.97153 z"
     id="path4642-5-3"
     inkscape:connector-curvature="0"
     sodipodi:nodetypes="ccccccc" />
  <circle
     style="opacity:1;fill:#ffffff;fill-opacity:1;fill-rule:nonzero;stroke:none;stroke-width:5.6831398;stroke-linecap:round;stroke-linejoin:round;stroke-miterlimit:4;stroke-dasharray:none;stroke-opacity:1"
     id="path4686"
     cx="199.19713"
     cy="86.160507"
     r="6.6732421" />
  <ellipse
     style="opacity:1;fill:#ffffff;fill-opacity:1;fill-rule:nonzero;stroke:none;stroke-width:5.6831398;stroke-linecap:round;stroke-linejoin:round;stroke-miterlimit:4;stroke-dasharray:none;stroke-opacity:1"
     id="path4688"
     cx="251.15308"
     cy="72.911789"
     rx="5.2432618"
     ry="6.2369561" />
  <path
     style="fill:#ffd96c;fill-opacity:1;fill-rule:evenodd;stroke:none;stroke-width:1.07404578px;stroke-linecap:butt;stroke-linejoin:miter;stroke-opacity:1"
     d="m 65.185874,117.04081 c 23.874532,7.04481 46.726316,14.98283 68.591326,23.78266 -15.87834,12.48467 -39.998328,12.75389 -67.867685,7.46594 -7.229076,-12.07194 -4.483208,-21.78037 -0.723641,-31.2486 z"
     id="path4696"
     inkscape:connector-curvature="0"
     sodipodi:nodetypes="cccc" />
  <path
     style="fill:#e5ad0d;fill-opacity:1;fill-rule:evenodd;stroke:none;stroke-width:1.07404578px;stroke-linecap:butt;stroke-linejoin:miter;stroke-opacity:1"
     d="m 158.27514,139.7814 c 10.65633,-0.25043 21.14884,6.29415 36.19836,2.26239 l 48.64155,22.62398 -2.82801,5.09038 -16.40237,18.09919 C 189.42998,159.92232 173.88642,151.09709 158.27514,139.7814 Z"
     id="path4702"
     inkscape:connector-curvature="0"
     sodipodi:nodetypes="cccccc" />
  <path
     style="fill:#e5ad0d;fill-opacity:1;fill-rule:evenodd;stroke:none;stroke-width:1.07404578px;stroke-linecap:butt;stroke-linejoin:miter;stroke-opacity:1"
     d="m 85.794649,281.03012 c 30.195441,-1.06058 72.544471,10.09507 101.891661,-24.16967 24.0119,-20.38331 48.19127,-40.68559 26.58317,-83.14309 l 24.88637,-3.95921 6.78719,1.6968 c 22.4489,18.02006 33.35586,43.25385 31.67356,76.35592 -0.57828,21.91907 -17.96396,32.20224 -37.89515,40.72315 l -56.55994,8.484 c -33.09544,4.56934 -73.29851,-5.51208 -97.366861,-15.9879 z"
     id="path4704"
     inkscape:connector-curvature="0"
     sodipodi:nodetypes="ccccccccc" />
  <path
     style="fill:#e5ad0d;fill-opacity:1;fill-rule:evenodd;stroke:none;stroke-width:1.07404578px;stroke-linecap:butt;stroke-linejoin:miter;stroke-opacity:1"
     d="M 158.53522,140.35028 C 293.76936,215.07194 267.33139,302.09096 84.655789,281.09527 163.23646,286.68245 288.70713,228.51831 158.53522,140.35028 Z"
     id="path4725"
     inkscape:connector-curvature="0"
     sodipodi:nodetypes="ccc" />
</svg>
