<?xml version="1.0" encoding="UTF-8" standalone="no"?>
<!-- Created with Inkscape (http://www.inkscape.org/) -->

<svg
   xmlns:dc="http://purl.org/dc/elements/1.1/"
   xmlns:cc="http://creativecommons.org/ns#"
   xmlns:rdf="http://www.w3.org/1999/02/22-rdf-syntax-ns#"
   xmlns:svg="http://www.w3.org/2000/svg"
   xmlns="http://www.w3.org/2000/svg"
   xmlns:sodipodi="http://sodipodi.sourceforge.net/DTD/sodipodi-0.dtd"
   xmlns:inkscape="http://www.inkscape.org/namespaces/inkscape"
   version="1.1"
   id="svg4555"
   width="320"
   height="320"
   viewBox="0 0 320 320"
   sodipodi:docname="duck.svg"
   inkscape:version="0.92.1 r15371"
   inkscape:export-filename="/home/luna/Projects/Active/RubberDuckDebugger/art/icon32.png"
   inkscape:export-xdpi="9.6000004"
   inkscape:export-ydpi="9.6000004">
  <metadata
     id="metadata4561">
    <rdf:RDF>
      <cc:Work
         rdf:about="">
        <dc:format>image/svg+xml</dc:format>
        <dc:type
           rdf:resource="http://purl.org/dc/dcmitype/StillImage" />
      </cc:Work>
    </rdf:RDF>
  </metadata>
  <defs
     id="defs4559" />
  <sodipodi:namedview
     pagecolor="#ffffff"
     bordercolor="#666666"
     borderopacity="1"
     objecttolerance="10"
     gridtolerance="10"
     guidetolerance="10"
     inkscape:pageopacity="0"
     inkscape:pageshadow="2"
     inkscape:window-width="1600"
     inkscape:window-height="847"
     id="namedview4557"
     showgrid="false"
     inkscape:snap-global="false"
     inkscape:zoom="1.3317536"
     inkscape:cx="82.183307"
     inkscape:cy="141.74607"
     inkscape:window-x="0"
     inkscape:window-y="26"
     inkscape:window-maximized="0"
     inkscape:current-layer="svg4555" />
  <g
     id="g4572"
     transform="translate(-9.579996,-2.2526715)">
    <ellipse
       ry="25.905693"
       rx="133.65836"
       cy="293.7157"
       cx="180.90387"
       id="path4508"
       style="opacity:1;fill:#000000;fill-opacity:0.3105023;fill-rule:nonzero;stroke:none;stroke-width:7.18110228;stroke-linecap:round;stroke-linejoin:round;stroke-miterlimit:4;stroke-dasharray:none;stroke-opacity:1" />
    <g
       transform="matrix(1.0740458,0,0,1.0740458,-11.439862,-12.184807)"
       id="g4754">
      <path
         style="fill:#ffc51f;fill-opacity:1;fill-rule:evenodd;stroke:#000000;stroke-width:5.29133844;stroke-linecap:butt;stroke-linejoin:miter;stroke-miterlimit:4;stroke-dasharray:none;stroke-opacity:1"
         d="m 88.325792,116.31976 c 15.986988,12.25252 39.141378,15.90416 61.297138,20.75415 l 103.28808,31.8552 c 27.89007,25.41981 38.87707,50.83962 33.30317,76.25943 -2.80548,25.60057 -22.66152,37.86843 -49.23077,44.88687 -28.76742,7.04394 -60.04943,8.22051 -92.66968,6.27451 -44.13919,-9.37276 -63.193446,-16.62469 -89.77376,-37.1644 -17.668182,-13.26984 -18.319467,-31.40165 -18.340875,-49.71342 5.416003,-31.06881 17.888403,-59.78549 30.889894,-88.3258 8.854733,-13.15154 14.850785,-7.72165 21.236803,-4.82654 z"
         id="path4571"
         inkscape:connector-curvature="0"
         sodipodi:nodetypes="cccccccccc" />
      <path
         style="fill:#ffc51f;fill-opacity:1;fill-rule:evenodd;stroke:#000000;stroke-width:5.29133844;stroke-linecap:butt;stroke-linejoin:miter;stroke-miterlimit:4;stroke-dasharray:none;stroke-opacity:1"
         d="m 155.89744,143.83107 c -9.59339,-9.96323 -18.99938,-20.39498 -26.06335,-36.68175 -10.4774,-26.774674 6.90662,-62.917594 15.14476,-69.280276 15.52263,-21.283932 53.73966,-24.294105 89.85195,-12.444752 20.9435,11.67589 45.75706,60.420191 29.18127,88.482198 l -18.10389,58.84234"
         id="path4575"
         inkscape:connector-curvature="0"
         sodipodi:nodetypes="cccccc" />
      <ellipse
         style="opacity:1;fill:#000000;fill-opacity:1;fill-rule:nonzero;stroke:none;stroke-width:5.29133844;stroke-linecap:round;stroke-linejoin:round;stroke-miterlimit:4;stroke-dasharray:none;stroke-opacity:1"
         id="path4577"
         cx="209.77475"
         cy="96.553391"
         rx="15.624948"
         ry="19.283712" />
      <ellipse
         style="opacity:1;fill:#000000;fill-opacity:1;fill-rule:nonzero;stroke:none;stroke-width:5.29133844;stroke-linecap:round;stroke-linejoin:round;stroke-miterlimit:4;stroke-dasharray:none;stroke-opacity:1"
         id="path4577-3"
         cx="255.77094"
         cy="85.582794"
         rx="11.272864"
         ry="16.060555" />
      <path
         style="fill:#e64f4b;fill-opacity:1;fill-rule:evenodd;stroke:#000000;stroke-width:5.29133844;stroke-linecap:butt;stroke-linejoin:miter;stroke-miterlimit:4;stroke-dasharray:none;stroke-opacity:1"
         d="m 203.19759,138.52187 c 14.2326,-12.98803 23.65362,-23.13617 37.1644,-32.82051 4.91969,-1.27861 9.31023,-1.23434 13.03168,0.48265 7.47732,3.3556 7.04182,11.70876 24.61538,8.68778 4.72268,0.0696 9.75272,-0.35246 11.58371,4.3439 2.96507,11.03789 -13.54144,13.4767 -20.27149,14.96229 4.23081,9.78009 7.43006,16.92789 4.34389,24.13273 -4.45602,9.96378 -12.4058,10.8111 -20.75415,10.6184 -20.61407,-6.07591 -31.73426,-16.72947 -50.67873,-22.20211 -1.87427,-3.32493 -1.36196,-6.00879 0.96531,-8.20513 z"
         id="path4611"
         inkscape:connector-curvature="0"
         sodipodi:nodetypes="cccccccccc" />
      <path
         style="fill:#a22e2b;fill-opacity:1;fill-rule:evenodd;stroke:none;stroke-width:5.29133844;stroke-linecap:butt;stroke-linejoin:miter;stroke-miterlimit:4;stroke-dasharray:none;stroke-opacity:1"
         d="m 264.43027,133.47927 c 9.71175,37.2273 -24.22984,14.29098 -44.72737,9.88345 z"
         id="path4622"
         inkscape:connector-curvature="0"
         sodipodi:nodetypes="ccc" />
      <path
         style="fill:#f09172;fill-opacity:1;fill-rule:evenodd;stroke:none;stroke-width:5.29133844;stroke-linecap:butt;stroke-linejoin:miter;stroke-miterlimit:4;stroke-dasharray:none;stroke-opacity:1"
         d="m 264.57997,118.30435 -31.20925,15.60463 c 7.68266,-6.10835 14.52316,-12.49742 31.20925,-15.60463 z"
         id="path4624"
         inkscape:connector-curvature="0"
         sodipodi:nodetypes="ccc" />
      <path
         style="fill:#ffd96c;fill-opacity:1;fill-rule:evenodd;stroke:none;stroke-width:5.29133844;stroke-linecap:butt;stroke-linejoin:miter;stroke-miterlimit:4;stroke-dasharray:none;stroke-opacity:1"
         d="m 161.86314,34.28364 c 17.56357,-6.621647 33.09475,-7.465405 47.82397,-6.029292 9.5639,3.412466 5.1717,0.659204 7.62928,8.820064 -18.51461,14.132295 -28.695,9.829522 -49.60721,23.531068 -15.11756,4.772441 -12.1586,12.071968 -22.05262,6.177068 -2.72073,-14.207458 4.70461,-24.199955 16.20658,-32.498908 z"
         id="path4634"
         inkscape:connector-curvature="0"
         sodipodi:nodetypes="cccccc" />
      <path
         style="fill:#e5ad0d;fill-opacity:1;fill-rule:evenodd;stroke:none;stroke-width:5.29133844;stroke-linecap:butt;stroke-linejoin:miter;stroke-miterlimit:4;stroke-dasharray:none;stroke-opacity:1"
         d="m 99.696427,193.54672 c -4.448798,5.50708 -9.941406,9.37343 -5.68171,16.13879 -9.730631,6.18249 -4.099062,12.74136 -5.051878,19.13892 -7.46742,9.92229 0.496856,12.91955 1.250121,20.90164 -0.897136,-8.76935 -2.476928,-13.6818 4.543183,-20.61647 -2.013813,-6.16798 -3.310143,-12.42621 4.280433,-19.8023 -4.574439,-5.06779 -0.702636,-9.78371 0.659851,-15.76058 z"
         id="path4642"
         inkscape:connector-curvature="0"
         sodipodi:nodetypes="ccccccc" />
      <path
         style="fill:#e5ad0d;fill-opacity:1;fill-rule:evenodd;stroke:none;stroke-width:5.29133844;stroke-linecap:butt;stroke-linejoin:miter;stroke-miterlimit:4;stroke-dasharray:none;stroke-opacity:1"
         d="m 114.84727,198.33753 c -5.29009,5.88148 -10.67916,8.55181 -5.61395,15.77712 -11.570735,13.08868 -4.8742,13.6544 -6.00721,20.4401 -8.879544,10.59686 -1.27049,17.69856 -0.37477,26.22332 -1.06679,-9.36554 -1.08402,-18.51264 7.26362,-25.91877 -2.39463,-6.58731 -3.9361,-13.27101 5.08987,-21.14857 -5.43948,-5.41233 -1.9777,-8.98999 -0.35756,-15.3732 z"
         id="path4642-7"
         inkscape:connector-curvature="0"
         sodipodi:nodetypes="ccccccc" />
      <path
         style="fill:#e5ad0d;fill-opacity:1;fill-rule:evenodd;stroke:none;stroke-width:5.29133844;stroke-linecap:butt;stroke-linejoin:miter;stroke-miterlimit:4;stroke-dasharray:none;stroke-opacity:1"
         d="m 135.34222,201.38061 c -5.45833,6.11548 -11.55718,12.1472 -6.33085,19.65998 -16.35197,13.48534 -5.60009,15.00527 -6.19828,21.25333 -9.16196,11.01847 -1.31089,18.40272 -0.38669,27.26665 -1.10072,-9.73816 -1.1185,-19.24918 7.49465,-26.94998 -2.47081,-6.8494 -4.06131,-13.79902 5.25176,-21.98999 -5.61249,-5.62767 -1.50225,-12.60282 0.16941,-19.23999 z"
         id="path4642-5"
         inkscape:connector-curvature="0"
         sodipodi:nodetypes="ccccccc" />
      <path
         style="fill:#e5ad0d;fill-opacity:1;fill-rule:evenodd;stroke:none;stroke-width:5.29133844;stroke-linecap:butt;stroke-linejoin:miter;stroke-miterlimit:4;stroke-dasharray:none;stroke-opacity:1"
         d="m 78.903261,186.40409 c -3.775764,4.43067 -7.994603,8.80065 -4.379324,14.24366 -8.258552,4.97407 -3.478944,10.25095 -4.287619,15.39805 -6.337726,7.98288 -0.9068,13.33277 -0.267491,19.75469 -0.761415,-7.0553 -0.773715,-13.94604 5.184375,-19.52527 -1.709166,-4.96239 -2.809384,-9.99739 3.632871,-15.93175 -3.882403,-4.07725 -1.039172,-9.13075 0.117188,-13.93938 z"
         id="path4642-5-3"
         inkscape:connector-curvature="0"
         sodipodi:nodetypes="ccccccc" />
      <circle
         style="opacity:1;fill:#ffffff;fill-opacity:1;fill-rule:nonzero;stroke:none;stroke-width:5.29133844;stroke-linecap:round;stroke-linejoin:round;stroke-miterlimit:4;stroke-dasharray:none;stroke-opacity:1"
         id="path4686"
         cx="205.035"
         cy="93.662659"
         r="6.213182" />
      <ellipse
         style="opacity:1;fill:#ffffff;fill-opacity:1;fill-rule:nonzero;stroke:none;stroke-width:5.29133844;stroke-linecap:round;stroke-linejoin:round;stroke-miterlimit:4;stroke-dasharray:none;stroke-opacity:1"
         id="path4688"
         cx="253.40906"
         cy="81.327324"
         rx="4.8817859"
         ry="5.8069739" />
      <path
         style="fill:#ffd96c;fill-opacity:1;fill-rule:evenodd;stroke:none;stroke-width:1px;stroke-linecap:butt;stroke-linejoin:miter;stroke-opacity:1"
         d="m 80.262622,122.41404 c 22.228598,6.55914 43.504958,13.9499 63.862568,22.14306 -14.78367,11.62397 -37.2408,11.87463 -63.188816,6.95123 -6.730696,-11.23969 -4.174131,-20.27881 -0.673752,-29.09429 z"
         id="path4696"
         inkscape:connector-curvature="0"
         sodipodi:nodetypes="cccc" />
      <path
         style="fill:#e5ad0d;fill-opacity:1;fill-rule:evenodd;stroke:none;stroke-width:1px;stroke-linecap:butt;stroke-linejoin:miter;stroke-opacity:1"
         d="m 166.93422,143.58687 c 9.92167,-0.23316 19.69082,5.86023 33.70281,2.10642 l 45.28815,21.06426 -2.63304,4.73945 -15.27158,16.85141 c -32.07935,-26.00915 -46.55132,-34.22596 -61.08634,-44.76154 z"
         id="path4702"
         inkscape:connector-curvature="0"
         sodipodi:nodetypes="cccccc" />
      <path
         style="fill:#e5ad0d;fill-opacity:1;fill-rule:evenodd;stroke:none;stroke-width:1px;stroke-linecap:butt;stroke-linejoin:miter;stroke-opacity:1"
         d="m 99.450607,275.09776 c 28.113733,-0.98746 67.543183,9.39911 94.867143,-22.50338 22.3565,-18.97807 44.86892,-37.88069 24.7505,-77.41113 l 23.17068,-3.68625 6.31928,1.57982 c 20.90125,16.77774 31.05627,40.27188 29.48995,71.09186 -0.53841,20.40795 -16.72551,29.98219 -35.28262,37.91566 l -52.66064,7.8991 c -30.81381,4.25433 -68.24524,-5.13207 -90.654293,-14.88568 z"
         id="path4704"
         inkscape:connector-curvature="0"
         sodipodi:nodetypes="ccccccccc" />
      <path
         style="fill:#e5ad0d;fill-opacity:1;fill-rule:evenodd;stroke:none;stroke-width:1px;stroke-linecap:butt;stroke-linejoin:miter;stroke-opacity:1"
         d="M 167.17637,144.11653 C 293.08733,213.68681 268.47202,294.70665 98.390261,275.15842 171.5535,280.36042 288.3741,226.20617 167.17637,144.11653 Z"
         id="path4725"
         inkscape:connector-curvature="0"
         sodipodi:nodetypes="ccc" />
    </g>
  </g>
</svg>
